Plotting Natural Disasters
…
jtwc_df <- as.data.frame(rbind(sapply(jtwc, as.numeric)))    ### convert all variables in jtwc_df to numeric and row bind

var_empty <- sapply(jtwc_df, function(x) sum(is.na(x)))      ### check which variables are empty/ all missing data

index <- var_empty == 38                                     ### create index which variables contain only NAs 

plot_df <-cbind(non_jtwc, jtwc_df[, !index])                 ### use index to remove varaibles that contain only NAs 

plot_df <- plot_df %>%                                       ### remove last row
        select(-starts_with("jtwc_sh")) %>% 
        slice(1:37)

plot_df                                                      ### show first 10 rows of data

## # A tibble: 37 x 22
##    Name   ISO_time            jtwc_wp_lat jtwc_wp_lon jtwc_wp_wind
##    <chr>  <dttm>                    <dbl>       <dbl>        <dbl>
##  1 HAIYAN 2013-11-02 06:00:00         6.6        162.           15
##  2 HAIYAN 2013-11-02 12:00:00         6.2        160.           15
##  3 HAIYAN 2013-11-02 18:00:00         6.1        159.           15
##  4 HAIYAN 2013-11-03 00:00:00         6.2        157.           20
##  5 HAIYAN 2013-11-03 06:00:00         6.3        156.           25
##  6 HAIYAN 2013-11-03 12:00:00         6.6        154.           30
##  7 HAIYAN 2013-11-03 18:00:00         6.3        153.           30
##  8 HAIYAN 2013-11-04 00:00:00         6.1        152.           35
##  9 HAIYAN 2013-11-04 06:00:00         6.1        150.           40
## 10 HAIYAN 2013-11-04 12:00:00         6.3        149.           45
## # ... with 27 more rows, and 17 more variables: jtwc_wp_pres <dbl>,
## #   jtwc_.._rmw <dbl>, jtwc_.._poci <dbl>, jtwc_.._roci <dbl>,
## #   jtwc_.._eye <dbl>, jtwc_.._wrad34_rad1 <dbl>,
## #   jtwc_.._wrad34_rad2 <dbl>, jtwc_.._wrad34_rad3 <dbl>,
## #   jtwc_.._wrad34_rad4 <dbl>, jtwc_.._wrad50_rad1 <dbl>,
## #   jtwc_.._wrad50_rad2 <dbl>, jtwc_.._wrad50_rad3 <dbl>,
## #   jtwc_.._wrad50_rad4 <dbl>, jtwc_.._wrad64_rad1 <dbl>,
## #   jtwc_.._wrad64_rad2 <dbl>, jtwc_.._wrad64_rad3 <dbl>,
## #   jtwc_.._wrad64_rad4 <dbl>
…
