…
<br>

# Super Typhoon Haiyan

Barely three weeks after the earthquake, super typhoon Haiyan or better known locally as typhoon Yolanda made land fall on the town of Guiuan, Eastern Samar. 

## Reading in Typhoon Data

Data for typhoon haiyan came from the National Oceanic and Atmospheric Administration (NOAA). The International Best Track Archive for Climate Stewardship (IBTrACS) is a global set of historical tropical cyclones. The data is derived from contributions from various world wide agencies tasked to monitor climate and weather. Description of the data and instructions for downloading the data are available at https://www.ncdc.noaa.gov/ibtracs/index.php?name=ibtracs-data-access

The storm data for the year 2013 was downloaded from this [ftp site](ftp://eclipse.ncdc.noaa.gov/pub/ibtracs/v03r10/all/csv/year/Year.2013.ibtracs_all.v03r10.csv). The variable names contain prefixes to denote the institute/agency that contributed the data. For our purposes we will use the data from the Joint typhoon Warning System (JWTC).


```
## # A tibble: 37 x 22
##    Name   ISO_time            jtwc_wp_lat jtwc_wp_lon jtwc_wp_wind
##    <chr>  <dttm>                    <dbl>       <dbl>        <dbl>
##  1 HAIYAN 2013-11-02 06:00:00        6.60         162         15.0
##  2 HAIYAN 2013-11-02 12:00:00        6.20         160         15.0
##  3 HAIYAN 2013-11-02 18:00:00        6.10         159         15.0
##  4 HAIYAN 2013-11-03 00:00:00        6.20         157         20.0
##  5 HAIYAN 2013-11-03 06:00:00        6.30         156         25.0
##  6 HAIYAN 2013-11-03 12:00:00        6.60         154         30.0
##  7 HAIYAN 2013-11-03 18:00:00        6.30         153         30.0
##  8 HAIYAN 2013-11-04 00:00:00        6.10         152         35.0
##  9 HAIYAN 2013-11-04 06:00:00        6.10         150         40.0
## 10 HAIYAN 2013-11-04 12:00:00        6.30         149         45.0
## # ... with 27 more rows, and 17 more variables: jtwc_wp_pres <dbl>,
## #   jtwc_.._rmw <dbl>, jtwc_.._poci <dbl>, jtwc_.._roci <dbl>,
## #   jtwc_.._eye <dbl>, jtwc_.._wrad34_rad1 <dbl>,
## #   jtwc_.._wrad34_rad2 <dbl>, jtwc_.._wrad34_rad3 <dbl>,
## #   jtwc_.._wrad34_rad4 <dbl>, jtwc_.._wrad50_rad1 <dbl>,
## #   jtwc_.._wrad50_rad2 <dbl>, jtwc_.._wrad50_rad3 <dbl>,
## #   jtwc_.._wrad50_rad4 <dbl>, jtwc_.._wrad64_rad1 <dbl>,
## #   jtwc_.._wrad64_rad2 <dbl>, jtwc_.._wrad64_rad3 <dbl>,
## #   jtwc_.._wrad64_rad4 <dbl>
```
…
